…
    ## `summarise()` has grouped output by 'id', 'year'. You can override using the
    ## `.groups` argument.

``` r
ny_noaa_clean_avgtmax
```

    ## # A tibble: 8,141 × 5
    ## # Groups:   id, year [4,195]
    ##    id           year month tmax_avg tmin_avg
    ##    <chr>       <dbl> <dbl>    <dbl>    <dbl>
    ##  1 USC00300023  1981     1    -2.11   -13.5 
    ##  2 USC00300023  1981     7    28.5     15.4 
    ##  3 USC00300023  1982     1    -4.33   -12.2 
    ##  4 USC00300023  1982     7    27.8     13.2 
    ##  5 USC00300023  1983     1     1.11    -7.39
    ##  6 USC00300023  1983     7    29.8     13.5 
    ##  7 USC00300023  1984     7    27.2     12.2 
    ##  8 USC00300023  1985     1    -1.30   -12.3 
    ##  9 USC00300023  1989     7    27.1     12.3 
    ## 10 USC00300023  1990     1     4.92    -4.98
    ## # ℹ 8,131 more rows
…
    ## # A tibble: 2 × 2
    ##    year median_duration
    ##   <dbl>           <dbl>
    ## 1  2020           11.9 
    ## 2  2024            8.98

``` r
median_ride_duration =
  combined_df |> 
  group_by(year, month, weekdays) |> 
  summarize(median_duration = median(duration), .groups = "drop")
median_ride_duration
```

    ## # A tibble: 28 × 4
    ##     year month weekdays  median_duration
    ##    <dbl> <dbl> <chr>               <dbl>
    ##  1  2020     1 Friday               8.64
    ##  2  2020     1 Monday               8.66
    ##  3  2020     1 Saturday             9.88
    ##  4  2020     1 Sunday               9.97
    ##  5  2020     1 Thursday             8.50
    ##  6  2020     1 Tuesday              8.57
    ##  7  2020     1 Wednesday            8.80
    ##  8  2020     7 Friday              13.5 
    ##  9  2020     7 Monday              13.4 
    ## 10  2020     7 Saturday            16.5 
    ## # ℹ 18 more rows
…
